Text Mining Project
…
## # A tibble: 6 x 2
##   Rating word     
##    <dbl> <chr>    
## 1      4 nice     
## 2      4 hotel    
## 3      4 expensive
## 4      4 parking  
## 5      4 got      
## 6      4 good

tidy_review %>%
  count(word) %>%
  arrange(desc(n))

## # A tibble: 72,806 x 2
##    word      n
##    <chr> <int>
##  1 hotel 49016
##  2 room  34669
##  3 not   31617
##  4 great 21175
##  5 n't   18984
##  6 good  17084
##  7 staff 16260
##  8 stay  15176
##  9 did   13904
## 10 just  12616
## # ... with 72,796 more rows

tidy_review2 <- review %>%
  unnest_tokens(word, Review) %>%
  anti_join(stop_words)

## Joining, by = "word"

tidy_review2

## # A tibble: 1,704,496 x 2
##    Rating word       
##     <dbl> <chr>      
##  1      4 nice       
##  2      4 hotel      
##  3      4 expensive  
##  4      4 parking    
##  5      4 deal       
##  6      4 stay       
##  7      4 hotel      
##  8      4 anniversary
##  9      4 arrived    
## 10      4 late       
## # ... with 1,704,486 more rows

tidy_review2 %>%
  count(word) %>%
  arrange(desc(n))

## # A tibble: 72,203 x 2
##    word         n
##    <chr>    <int>
##  1 hotel    49016
##  2 n't      18984
##  3 staff    16260
##  4 stay     15176
##  5 nice     12460
##  6 location 11095
##  7 stayed   10467
##  8 service  10088
##  9 time      9901
## 10 night     9899
## # ... with 72,193 more rows
…
#creating cusotm stop words
custom_stop_words <- tibble(word = c("hotel", "room", "hotels", "1", "2", "3", "4", "5", "stay", "stayed", "restaurants","6", "30", "15", "20", "7", "la", "9", "10", "13", "16", "it____", "don____", "4th", "ac","100", "200", '12' , '27', 'n\'t', "wow", "5th", "1st","18", "2006", "2008", "dr", "ubid", "pike", "45", "14", "itc", "ike", "mtr", "mithila", "sarento", "marcial", "manggis", "30hk", "16yr", "matteo", "mocenigo", "bahn",  stopwords("en")))

tidy_review2 = tidy_review2 %>%
  anti_join(custom_stop_words, by = c("word" = "word"))

#tidy_review2 = tidy_review  %>% 
#  mutate(word = wordStem(word)) # for this method stemming cuts too many words and they are loosing their meaning that's why it was decided to continue analysis without it

tidy_review2 %>%
  count(word) %>%
  arrange(desc(n))

## # A tibble: 72,151 x 2
##    word          n
##    <chr>     <int>
##  1 staff     16260
##  2 nice      12460
##  3 location  11095
##  4 service   10088
##  5 time       9901
##  6 night      9899
##  7 beach      9765
##  8 day        9680
##  9 clean      9407
## 10 breakfast  9336
## # ... with 72,141 more rows
…
## # A tibble: 2 x 2
##   sentiment      n
##   <chr>      <int>
## 1 negative   77871
## 2 positive  183416

#  the most often words for a given sentiment
sentiment_review %>%
  count(word, sentiment) %>%
  arrange(desc(n))

## # A tibble: 3,537 x 3
##    word        sentiment     n
##    <chr>       <chr>     <int>
##  1 nice        positive  12460
##  2 clean       positive   9407
##  3 friendly    positive   6764
##  4 excellent   positive   6037
##  5 helpful     positive   5477
##  6 recommend   positive   4850
##  7 beautiful   positive   4675
##  8 comfortable positive   4429
##  9 free        positive   4111
## 10 wonderful   positive   4053
## # ... with 3,527 more rows
…
